Correlations between soil colour and geochemical properties and SSA and SOM
…
Joining with `by = join_by(sample_number, site, sampling_design)`
Joining with `by = join_by(sample_number, site, sampling_design)`

corr_colour

# A tibble: 90 × 10
   site        sampling_design Fingerprint p_value_ssa estimate_ssa p_value_d50
   <chr>       <chr>           <chr>             <dbl>        <dbl>       <dbl>
 1 Agriculture Grid            X             0.0607          -0.270   0.0607   
 2 Agriculture Grid            Y             0.0742          -0.257   0.0742   
 3 Agriculture Grid            Z             0.254           -0.166   0.254    
 4 Agriculture Grid            x             0.000763        -0.465   0.000763 
 5 Agriculture Grid            y             0.000434        -0.483   0.000434 
 6 Agriculture Grid            u             0.0000132       -0.579   0.0000132
 7 Agriculture Grid            v             0.0000697       -0.537   0.0000697
 8 Agriculture Grid            L             0.0892          -0.245   0.0892   
 9 Agriculture Grid            a             0.0000322       -0.557   0.0000322
10 Agriculture Grid            b             0.0000392       -0.552   0.0000392
# ℹ 80 more rows
# ℹ 4 more variables: estimate_d50 <dbl>, p_value_om <dbl>, estimate_om <dbl>,
#   type <chr>
…
Joining with `by = join_by(sample_number, site, sampling_design)`
Joining with `by = join_by(sample_number, site, sampling_design)`

corr_colour2

# A tibble: 45 × 10
   sampling_design Fingerprint p_value_ssa estimate_ssa p_value_d50 estimate_d50
   <chr>           <chr>             <dbl>        <dbl>       <dbl>        <dbl>
 1 Grid            X              4.74e- 2        0.200    4.74e- 2        0.200
 2 Grid            Y              1.28e- 2        0.249    1.28e- 2        0.249
 3 Grid            Z              1.59e- 7        0.498    1.59e- 7        0.498
 4 Grid            x              4.60e-47       -0.940    4.60e-47       -0.940
 5 Grid            y              9.31e- 2       -0.170    9.31e- 2       -0.170
 6 Grid            u              1.41e-41       -0.921    1.41e-41       -0.921
 7 Grid            v              1.97e-12       -0.633    1.97e-12       -0.633
 8 Grid            L              4.25e- 3        0.285    4.25e- 3        0.285
 9 Grid            a              5.58e-49       -0.945    5.58e-49       -0.945
10 Grid            b              1.28e-25       -0.824    1.28e-25       -0.824
# ℹ 35 more rows
# ℹ 4 more variables: p_value_om <dbl>, estimate_om <dbl>, type <chr>,
#   site <chr>
…
Warning: There were 2 warnings in `mutate()`.
The first warning was:
ℹ In argument: `om_test = map(data, ~cor.test(.$value, .$OM, method =
  "pearson"))`.
Caused by warning in `cor()`:
! the standard deviation is zero
ℹ Run `dplyr::last_dplyr_warnings()` to see the 1 remaining warning.

corr_geo

# A tibble: 264 × 10
   site   sampling_design Fingerprint p_value_ssa estimate_ssa p_value_d50
   <chr>  <chr>           <chr>             <dbl>        <dbl>       <dbl>
 1 Forest Grid            Ag             2.89e- 5        0.555    2.89e- 5
 2 Forest Grid            Al             5.39e-14        0.834    5.39e-14
 3 Forest Grid            As             9.84e- 7       -0.629    9.84e- 7
 4 Forest Grid            B              2.15e- 3        0.424    2.15e- 3
 5 Forest Grid            Ba             4.69e- 3       -0.394    4.69e- 3
 6 Forest Grid            Be             1.11e- 7        0.669    1.11e- 7
 7 Forest Grid            Bi             5.61e- 9        0.715    5.61e- 9
 8 Forest Grid            Ca             3.95e-11       -0.775    3.95e-11
 9 Forest Grid            Cd             2.20e- 1        0.177    2.20e- 1
10 Forest Grid            Ce             2.95e- 7       -0.652    2.95e- 7
# ℹ 254 more rows
# ℹ 4 more variables: estimate_d50 <dbl>, p_value_om <dbl>, estimate_om <dbl>,
#   type <chr>
…
Joining with `by = join_by(sample_number, site, sampling_design)`
Joining with `by = join_by(sample_number, site, sampling_design)`

corr_geo2

# A tibble: 132 × 10
   sampling_design Fingerprint p_value_ssa estimate_ssa p_value_d50 estimate_d50
   <chr>           <chr>             <dbl>        <dbl>       <dbl>        <dbl>
 1 Grid            Ag             4.80e-15        0.686    4.80e-15        0.686
 2 Grid            Al             1.34e-49        0.947    1.34e-49        0.947
 3 Grid            As             1.19e-19        0.757    1.19e-19        0.757
 4 Grid            B              4.46e-35        0.891    4.46e-35        0.891
 5 Grid            Ba             1.10e- 2       -0.255    1.10e- 2       -0.255
 6 Grid            Be             1.78e-51        0.952    1.78e-51        0.952
 7 Grid            Bi             8.99e-21        0.772    8.99e-21        0.772
 8 Grid            Ca             1.03e- 6        0.468    1.03e- 6        0.468
 9 Grid            Cd             2.78e- 2        0.221    2.78e- 2        0.221
10 Grid            Ce             5.25e- 5        0.395    5.25e- 5        0.395
# ℹ 122 more rows
# ℹ 4 more variables: p_value_om <dbl>, estimate_om <dbl>, type <chr>,
#   site <chr>
…
