Testing for differences between sites using three different sampling designs
…
Colour

In [3]:

kruskal_colour <- colour %>%
  pivot_longer(cols = X:B, names_to = "Fingerprint", values_to = "value") %>%
  nest(data = c(-Fingerprint, - site)) %>%
  mutate(k_test = map(data, ~kruskal.test(value ~ sampling_design, data = .))) %>%
  mutate(p_value = map_dbl(k_test, ~ .$p.value)) %>%
  select(site, Fingerprint,p_value)%>%
  mutate(type = "colour")
  
kruskal_colour 

# A tibble: 30 × 4
   site        Fingerprint    p_value type  
   <chr>       <chr>            <dbl> <chr> 
 1 Agriculture X           0.0526     colour
 2 Agriculture Y           0.0567     colour
 3 Agriculture Z           0.530      colour
 4 Agriculture x           0.0000370  colour
 5 Agriculture y           0.00000552 colour
 6 Agriculture u           0.0000173  colour
 7 Agriculture v           0.00000769 colour
 8 Agriculture L           0.0567     colour
 9 Agriculture a           0.0000362  colour
10 Agriculture b           0.0000104  colour
# ℹ 20 more rows
Geochemistry

In [4]:

kruskal_geo <- geo %>%
  pivot_longer(cols = Ag:Zr, names_to = "Fingerprint", values_to = "value") %>%
  nest(data = c(-Fingerprint, - site)) %>%
  mutate(k_test = map(data, ~kruskal.test(value ~ sampling_design, data = .))) %>%
  mutate(p_value = map_dbl(k_test, ~ .$p.value)) %>%
  select(site, Fingerprint,p_value) %>%
  mutate(type = "geochemistry") %>%
  filter(Fingerprint %in% c("Ag", "Al", "As","B","Ba","Be","Bi","Ca","Cd","Ce","Co", "Cr", "Cs", "Cu", "Fe", "Ga", "Hf", "Hg", "In", "K", "La", "Li", "Mg", "Mn", "Mo", "Nb", "Ni", "P", "Pb", "Rb", "S", "Sb", "Sc", "Se", "Sn", "Sr", "Te", "Th", "Tl", "U", "V", "Y", "Zn", "Zr"))
kruskal_geo 

# A tibble: 88 × 4
   site   Fingerprint  p_value type        
   <chr>  <chr>          <dbl> <chr>       
 1 Forest Ag          0.00218  geochemistry
 2 Forest Al          0.000205 geochemistry
 3 Forest As          0.00640  geochemistry
 4 Forest B           0.00786  geochemistry
 5 Forest Ba          0.00558  geochemistry
 6 Forest Be          0.000968 geochemistry
 7 Forest Bi          0.000413 geochemistry
 8 Forest Ca          0.000155 geochemistry
 9 Forest Cd          0.000229 geochemistry
10 Forest Ce          0.0661   geochemistry
# ℹ 78 more rows
…
