Tracer selection using composite mixtures
…
In [6]:

wilcox_test <- range_results %>%
  inner_join(results) %>%
  nest(data = c(-sample_design, -Fingerprint)) %>%
  mutate(test = map(data, ~wilcox.test(value ~ site, data = ., exact = FALSE))) %>%
  mutate(p_value = map_dbl(test, ~ .$p.value),
         statistic =  map_dbl(test, ~ .$statistic))

Joining with `by = join_by(Fingerprint, sample_design)`

grid_wilcox <- filter(wilcox_test, p_value < 0.01 , sample_design == "Grid")
grid_wilcox

# A tibble: 49 × 6
# Groups:   Fingerprint, sample_design [49]
   Fingerprint sample_design data              test     p_value statistic
   <chr>       <chr>         <list>            <list>     <dbl>     <dbl>
 1 Ag          Grid          <tibble [98 × 3]> <htest> 8.43e-15     2282.
 2 Al          Grid          <tibble [98 × 3]> <htest> 1.48e-17     2401 
 3 As          Grid          <tibble [98 × 3]> <htest> 8.37e-17     2372.
 4 B_col       Grid          <tibble [98 × 3]> <htest> 4.72e-11     2127 
 5 Be          Grid          <tibble [98 × 3]> <htest> 1.47e-17     2401 
 6 Bi          Grid          <tibble [98 × 3]> <htest> 2.85e-16     2349 
 7 Ca          Grid          <tibble [98 × 3]> <htest> 8.60e- 8     1954.
 8 Cd          Grid          <tibble [98 × 3]> <htest> 1.54e- 7     1939 
 9 Ce          Grid          <tibble [98 × 3]> <htest> 1.28e- 8     2002.
10 Co          Grid          <tibble [98 × 3]> <htest> 3.35e-11     2134.
# ℹ 39 more rows

pull(grid_wilcox, Fingerprint)

 [1] "Ag"    "Al"    "As"    "B_col" "Be"    "Bi"    "Ca"    "Cd"    "Ce"   
[10] "Co"    "Cr"    "Cs"    "Cu"    "Fe"    "G_col" "Ga"    "Hf"    "Hg"   
[19] "In"    "K"     "L_col" "La"    "Li"    "Mg"    "Nb"    "Ni"    "Rb"   
[28] "S"     "Sb"    "Sc"    "Se"    "Sn"    "Sr"    "Te"    "Th"    "U"    
[37] "V"     "X_col" "Y"     "Y_col" "Z_col" "Zr"    "a_col" "b_col" "c_col"
[46] "h_col" "u_col" "v_col" "x_col"

transect_wilcox <- filter(wilcox_test, p_value < 0.01 , sample_design == "Transect")
  transect_wilcox

# A tibble: 33 × 6
# Groups:   Fingerprint, sample_design [33]
   Fingerprint sample_design data              test       p_value statistic
   <chr>       <chr>         <list>            <list>       <dbl>     <dbl>
 1 Ag          Transect      <tibble [28 × 3]> <htest> 0.000319        176 
 2 Al          Transect      <tibble [28 × 3]> <htest> 0.00000734      196 
 3 As          Transect      <tibble [28 × 3]> <htest> 0.00000920      195 
 4 B_col       Transect      <tibble [28 × 3]> <htest> 0.00102         170 
 5 Be          Transect      <tibble [28 × 3]> <htest> 0.00000734      196 
 6 Ca          Transect      <tibble [28 × 3]> <htest> 0.000310        177 
 7 Cd          Transect      <tibble [28 × 3]> <htest> 0.00930         155 
 8 Ce          Transect      <tibble [28 × 3]> <htest> 0.00152         168.
 9 Co          Transect      <tibble [28 × 3]> <htest> 0.000433        175 
10 Cr          Transect      <tibble [28 × 3]> <htest> 0.00000703      196.
# ℹ 23 more rows
…
