Tracer selection using design specific mixtures
…
wilcox_test <- range_results %>%
  inner_join(results) %>%
  nest(data = c(-sample_design, -Fingerprint)) %>%
  mutate(test = map(data, ~wilcox.test(value ~ site, data = ., exact = FALSE))) %>%
  mutate(p_value = map_dbl(test, ~ .$p.value),
         statistic =  map_dbl(test, ~ .$statistic))

Joining with `by = join_by(Fingerprint, sample_design)`

grid_wilcox <- filter(wilcox_test, p_value < 0.01 , sample_design == "Grid") %>%
  arrange(factor(Fingerprint, levels = f_order))
grid_wilcox

# A tibble: 49 × 6
# Groups:   Fingerprint, sample_design [49]
   Fingerprint sample_design data              test     p_value statistic
   <chr>       <chr>         <list>            <list>     <dbl>     <dbl>
 1 Ag          Grid          <tibble [98 × 3]> <htest> 8.43e-15     2282.
 2 Al          Grid          <tibble [98 × 3]> <htest> 1.48e-17     2401 
 3 As          Grid          <tibble [98 × 3]> <htest> 8.37e-17     2372.
 4 Be          Grid          <tibble [98 × 3]> <htest> 1.47e-17     2401 
 5 Bi          Grid          <tibble [98 × 3]> <htest> 2.85e-16     2349 
 6 Ca          Grid          <tibble [98 × 3]> <htest> 8.60e- 8     1954.
 7 Cd          Grid          <tibble [98 × 3]> <htest> 1.54e- 7     1939 
 8 Ce          Grid          <tibble [98 × 3]> <htest> 1.28e- 8     2002.
 9 Co          Grid          <tibble [98 × 3]> <htest> 3.35e-11     2134.
10 Cr          Grid          <tibble [98 × 3]> <htest> 1.16e-17     2400 
# ℹ 39 more rows

pull(grid_wilcox, Fingerprint)

 [1] "Ag"    "Al"    "As"    "Be"    "Bi"    "Ca"    "Cd"    "Ce"    "Co"   
[10] "Cr"    "Cs"    "Cu"    "Fe"    "Ga"    "Hf"    "Hg"    "In"    "K"    
[19] "La"    "Li"    "Mg"    "Nb"    "Ni"    "Rb"    "S"     "Sb"    "Sc"   
[28] "Se"    "Sn"    "Sr"    "Te"    "Th"    "U"     "V"     "Y"     "Zr"   
[37] "G_col" "B_col" "x_col" "Y_col" "X_col" "Z_col" "L_col" "a_col" "b_col"
[46] "u_col" "v_col" "c_col" "h_col"

transect_wilcox <- filter(wilcox_test, p_value < 0.01 , sample_design == "Transect") %>%
  arrange(factor(Fingerprint, levels = f_order))
transect_wilcox

# A tibble: 38 × 6
# Groups:   Fingerprint, sample_design [38]
   Fingerprint sample_design data              test       p_value statistic
   <chr>       <chr>         <list>            <list>       <dbl>     <dbl>
 1 Ag          Transect      <tibble [28 × 3]> <htest> 0.000319        176 
 2 Al          Transect      <tibble [28 × 3]> <htest> 0.00000734      196 
 3 As          Transect      <tibble [28 × 3]> <htest> 0.00000920      195 
 4 B           Transect      <tibble [28 × 3]> <htest> 0.00000106      196 
 5 Be          Transect      <tibble [28 × 3]> <htest> 0.00000734      196 
 6 Bi          Transect      <tibble [28 × 3]> <htest> 0.0000229       190 
 7 Ca          Transect      <tibble [28 × 3]> <htest> 0.000310        177 
 8 Cd          Transect      <tibble [28 × 3]> <htest> 0.00930         155 
 9 Ce          Transect      <tibble [28 × 3]> <htest> 0.00152         168.
10 Co          Transect      <tibble [28 × 3]> <htest> 0.000433        175 
# ℹ 28 more rows

pull(transect_wilcox, Fingerprint)

 [1] "Ag"    "Al"    "As"    "B"     "Be"    "Bi"    "Ca"    "Cd"    "Ce"   
[10] "Co"    "Cr"    "Cs"    "Cu"    "Fe"    "Ga"    "In"    "La"    "Li"   
[19] "Nb"    "Ni"    "S"     "Sb"    "Sc"    "Se"    "Sn"    "Sr"    "Te"   
[28] "U"     "V"     "Y"     "B_col" "x_col" "Z_col" "a_col" "b_col" "u_col"
[37] "c_col" "h_col"

likely_wilcox <- filter(wilcox_test, p_value < 0.01 , sample_design == "Likely to erode") %>%
  arrange(factor(Fingerprint, levels = f_order))
likely_wilcox

# A tibble: 48 × 6
# Groups:   Fingerprint, sample_design [48]
   Fingerprint sample_design   data              test     p_value statistic
   <chr>       <chr>           <list>            <list>     <dbl>     <dbl>
 1 Ag          Likely to erode <tibble [16 × 3]> <htest> 0.000612        64
 2 Al          Likely to erode <tibble [16 × 3]> <htest> 0.000923        64
 3 As          Likely to erode <tibble [16 × 3]> <htest> 0.000931        64
 4 B           Likely to erode <tibble [16 × 3]> <htest> 0.000325        64
 5 Ba          Likely to erode <tibble [16 × 3]> <htest> 0.000830         0
 6 Be          Likely to erode <tibble [16 × 3]> <htest> 0.000923        64
 7 Bi          Likely to erode <tibble [16 × 3]> <htest> 0.000830        64
 8 Ca          Likely to erode <tibble [16 × 3]> <htest> 0.00741          6
 9 Cd          Likely to erode <tibble [16 × 3]> <htest> 0.000923        64
10 Co          Likely to erode <tibble [16 × 3]> <htest> 0.00710         58
# ℹ 38 more rows
…
